Python Analysis
…
Code

# Calculate the total of Fraction_of_Citations, including "Unknown"
total_citations_incl_unknown <- sum(citations_by_country$Fraction_of_Citations)

# Create and round the percentage column to the nearest hundredth, including "Unknown" in the percentage calculation
citations_by_country$Percentage_of_Citations <- round(
  (citations_by_country$Fraction_of_Citations / total_citations_incl_unknown) * 100, 2
)

# Arrange by descending order of the new percentage column
 citations_by_country %>%
  arrange(desc(Percentage_of_Citations))

# A tibble: 184 × 4
   Cited_Country  Fraction_of_Citations Denominator_RDI Percentage_of_Citations
   <chr>                          <dbl>           <dbl>                   <dbl>
 1 Unknown                       25571.          0.352                    35.2 
 2 United States                 15471.          0.213                    21.3 
 3 United Kingdom                 6101.          0.0839                    8.39
 4 Germany                        5086.          0.07                      7   
 5 Brazil                         2180.          0.03                      3   
 6 Japan                          2178.          0.03                      3   
 7 Austria                        1782.          0.0245                    2.45
 8 France                         1541.          0.0212                    2.12
 9 Finland                        1270.          0.0175                    1.75
10 Netherlands                    1216.          0.0167                    1.67
# ℹ 174 more rows
…
# Calculate the total of Fraction_of_Citations, excluding "Unknown"
total_citations <- sum(citations_by_country$Fraction_of_Citations[citations_by_country$Cited_Country != "Unknown"])

# Create and round the percentage column to the nearest hundredth, excluding "Unknown" in the percentage calculation
citations_by_country$Percentage_of_Citations <- ifelse(
  citations_by_country$Cited_Country == "Unknown", 
  NA, 
  round((citations_by_country$Fraction_of_Citations / total_citations) * 100, 2)
)

citations_by_country %>%
  arrange(desc(Percentage_of_Citations))

# A tibble: 184 × 4
   Cited_Country  Fraction_of_Citations Denominator_RDI Percentage_of_Citations
   <chr>                          <dbl>           <dbl>                   <dbl>
 1 United States                 15471.          0.213                    32.8 
 2 United Kingdom                 6101.          0.0839                   12.9 
 3 Germany                        5086.          0.07                     10.8 
 4 Brazil                         2180.          0.03                      4.63
 5 Japan                          2178.          0.03                      4.62
 6 Austria                        1782.          0.0245                    3.78
 7 France                         1541.          0.0212                    3.27
 8 Finland                        1270.          0.0175                    2.7 
 9 Netherlands                    1216.          0.0167                    2.58
10 Romania                        1206.          0.0166                    2.56
# ℹ 174 more rows
…
